\relax 
\citation{}
\citation{}
\citation{}
\citation{}
\citation{}
\citation{}
\citation{}
\citation{}
\citation{0210096,0610361,0709.1513,0806.3096,1502.00608,Wallisetal2016}
\citation{}
\citation{}
\newlabel{FirstPage}{{}{1}{}{}{}}
\@writefile{toc}{\contentsline {section}{\numberline {I}Introduction}{1}{}}
\citation{Wallisetal2016}
\citation{}
\citation{}
\citation{}
\citation{Wallisetal2016}
\@writefile{toc}{\contentsline {section}{\numberline {II}Recap of theory/formalism}{2}{}}
\newlabel{sec_recap}{{II}{2}{}{}{}}
\citation{0610361,0709.1513,0806.3096,1502.00608}
\citation{Wallisetal2016}
\citation{0610361,0709.1513}
\@writefile{toc}{\contentsline {subsection}{\numberline {A}Brief note on other formalisms}{3}{}}
\@writefile{toc}{\contentsline {subsection}{\numberline {B}Partial sky extension to formalism}{3}{}}
\newlabel{eq_polconstit}{{9}{3}{}{}{}}
\citation{Wallisetal2016}
\citation{BrownCastroTaylor}
\newlabel{eq_maskedpower}{{12}{4}{}{}{}}
\newlabel{eq_totpower}{{14}{4}{}{}{}}
\@writefile{toc}{\contentsline {subsubsection}{\numberline {1}Gain}{4}{}}
\newlabel{sec_approxgainpartial}{{II\tmspace  +\thinmuskip {.1667em}B\tmspace  +\thinmuskip {.1667em}1}{4}{}{}{}}
\citation{Wallisetal2016}
\citation{Wallisetal2016}
\citation{Wallisetal2016}
\@writefile{toc}{\contentsline {subsubsection}{\numberline {2}Pointing}{5}{}}
\@writefile{toc}{\contentsline {subsection}{\numberline {C}Numerical investigation of terms contributing to partial sky formalism}{5}{}}
\@writefile{toc}{\contentsline {section}{\numberline {III}TOD simulations and validation of approximate forms}{5}{}}
\newlabel{sec_tod}{{III}{5}{}{}{}}
\@writefile{toc}{\contentsline {subsection}{\numberline {A}Full sky simulations and validation of approximate forms}{5}{}}
\@writefile{lof}{\contentsline {figure}{\numberline {1}{\ignorespaces Plot showing gain leakage from ToD simulation, also with approximate and exact expressions for the expected level of the systematic in the latter. For the Epic scan strategy. }}{6}{}}
\newlabel{fig_epic_gain}{{1}{6}{}{}{}}
\@writefile{toc}{\contentsline {subsection}{\numberline {B}Masked surveys}{6}{}}
\@writefile{lof}{\contentsline {figure}{\numberline {2}{\ignorespaces Plot showing pointing leakage from ToD simulation, also with approximate and exact expressions for the expected level of the systematic in the latter. For the Epic scan strategy. }}{7}{}}
\newlabel{fig_epic_pointing}{{2}{7}{}{}{}}
\@writefile{lof}{\contentsline {figure}{\numberline {3}{\ignorespaces Plot showing gain leakage from ToD simulation, also with approximate and exact expressions for the expected level of the systematic in the latter. For the Epic shallow-esque survey. }}{7}{}}
\newlabel{fig_epicshallow_gain}{{3}{7}{}{}{}}
\@writefile{toc}{\contentsline {section}{\numberline {IV}Partial boresight rotation simulations}{7}{}}
\@writefile{lof}{\contentsline {figure}{\numberline {4}{\ignorespaces Plot showing pointing leakage from ToD simulation, also with approximate and exact expressions for the expected level of the systematic in the latter. For the Epic shallow-esque survey. }}{7}{}}
\newlabel{fig_epicshallow_pointing}{{4}{7}{}{}{}}
\citation{Wallisetal2016}
\@writefile{lof}{\contentsline {figure}{\numberline {5}{\ignorespaces Plot showing gain leakage from ToD simulation, also with approximate and exact expressions for the expected level of the systematic in the latter. For the Epic shallow-esque survey with a galactic mask applied. }}{8}{}}
\newlabel{fig_epicshallow_galmask_gain}{{5}{8}{}{}{}}
\@writefile{lof}{\contentsline {figure}{\numberline {6}{\ignorespaces Plot showing pointing leakage from ToD simulation, also with approximate and exact expressions for the expected level of the systematic in the latter. For the Epic shallow-esque survey with a galactic mask applied. }}{8}{}}
\newlabel{fig_epicshallow_galmask_pointing}{{6}{8}{}{}{}}
\@writefile{toc}{\contentsline {section}{\numberline {V}Conclusion}{8}{}}
\@writefile{lof}{\contentsline {figure}{\numberline {7}{\ignorespaces Plot showing gain leakage from ToD simulation, for a single circle cut out of the epic scan strategy. The Tod points have been divided by the "no systematic" tod points to reduce the scatter and the red dashed curve is the approximate formula applied to the partial sky. }}{8}{}}
\newlabel{fig_singlecircle_gain}{{7}{8}{}{}{}}
\@writefile{lof}{\contentsline {figure}{\numberline {8}{\ignorespaces Plot showing pointing leakage from ToD simulation, for a single circle cut out of the epic scan strategy. The Tod points have been divided by the "no systematic" tod points to reduce the scatter and the red dashed curve is the approximate formula applied to the partial sky. }}{9}{}}
\newlabel{fig_singlecircle_pointing}{{8}{9}{}{}{}}
\@writefile{lof}{\contentsline {figure}{\numberline {9}{\ignorespaces Plot showing gain leakage from ToD simulation with and without boresight rotation, also with the approximate expression for the expected level of the systematic in the latter. For the Deep scan strategy. Note the almost complete removal of the gain systematic from the ToD simulation when the partial boresight rotation scan strategy is used. }}{9}{}}
\newlabel{fig_gain_deep}{{9}{9}{}{}{}}
\@writefile{toc}{\contentsline {section}{\numberline {}Acknowledgments}{9}{}}
\@writefile{toc}{\appendix }
\@writefile{lof}{\contentsline {figure}{\numberline {10}{\ignorespaces Plot showing gain leakage from ToD simulation with and without boresight rotation, also with the approximate expression for the expected level of the systematic in the latter. For the Shallow scan strategy. Note the almost complete removal of the gain systematic from the ToD simulation when the partial boresight rotation scan strategy is used. }}{10}{}}
\newlabel{fig_gain_shallow}{{10}{10}{}{}{}}
\@writefile{lof}{\contentsline {figure}{\numberline {11}{\ignorespaces Plot showing pointing leakage from ToD simulation with and without boresight rotation, aalso with the approximate expression for the expected level of the systematic in the latter. For the Deep scan strategy. Note the almost complete removal of the pointing systematic from the ToD simulation when the partial boresight rotation scan strategy is used. }}{10}{}}
\newlabel{fig_pointing_deep}{{11}{10}{}{}{}}
\@writefile{lof}{\contentsline {figure}{\numberline {12}{\ignorespaces Plot showing pointing leakage from ToD simulation with and without boresight rotation, also with the approximate expression for the expected level of the systematic in the latter. For the Shallow scan strategy. Note the almost complete removal of the pointing systematic from the ToD simulation when the partial boresight rotation scan strategy is used. }}{10}{}}
\newlabel{fig_pointing_shallow}{{12}{10}{}{}{}}
\@writefile{lof}{\contentsline {figure}{\numberline {13}{\ignorespaces Comparison of theory curves for varying $r$ to the approximate form for the pointing systematic. Here, we have assumed that the EE contributions to the pseudo $C^{BB}_\ell $ can be subtracted off. }}{11}{}}
\@writefile{lof}{\contentsline {figure}{\numberline {14}{\ignorespaces Comparison of theory curves for varying $r$ to the approximate form for the pointing systematic. Here, we have assumed that the EE contributions to the pseudo $C^{BB}_\ell $ can be subtracted off. }}{11}{}}
\@writefile{toc}{\contentsline {section}{\numberline {A}Understanding the contribution of the full sky EE systematic to pseudo $C^{BB}_\ell $}{11}{}}
\newlabel{app_partialsky}{{A}{11}{}{}{}}
\@writefile{lof}{\contentsline {figure}{\numberline {15}{\ignorespaces Comparison of theory curves for varying $r$ to the approximate form for the pointing systematic. Here, we have assumed that the EE contributions to the pseudo $C^{BB}_\ell $ can be subtracted off. }}{12}{}}
\@writefile{lof}{\contentsline {figure}{\numberline {16}{\ignorespaces Comparison of theory curves for varying $r$ to the approximate form for the pointing systematic. Here, we have assumed that the EE contributions to the pseudo $C^{BB}_\ell $ can be subtracted off. }}{12}{}}
\@writefile{toc}{\contentsline {section}{\numberline {B}Exact calculations}{13}{}}
\newlabel{sec_exact}{{B}{13}{}{}{}}
\@writefile{lof}{\contentsline {figure}{\numberline {17}{\ignorespaces Ratios of the signal+systematic and signal+cross contributions to the signal contribution for the full sky EE spectrum for the gain systematic. }}{14}{}}
\newlabel{fig_eeratio_gain}{{17}{14}{}{}{}}
\@writefile{lof}{\contentsline {figure}{\numberline {18}{\ignorespaces Ratio of the TT to EE spectrum. Notice the low $\ell $ peak and sharp fall off. }}{14}{}}
\newlabel{fig_ttee_ratio}{{18}{14}{}{}{}}
\@writefile{lof}{\contentsline {figure}{\numberline {19}{\ignorespaces Ratio of the TE to EE spectrum. Notice the low $\ell $ peak and sharp fall off. }}{15}{}}
\newlabel{fig_teee_ratio}{{19}{15}{}{}{}}
\@writefile{lof}{\contentsline {figure}{\numberline {20}{\ignorespaces Fractional contribution of the effect of the gain systematic on the full sky EE spectrum to the pseudo $C^{BB}_\ell $ spectrum. }}{15}{}}
\newlabel{fig_gainsys_pseudocl}{{20}{15}{}{}{}}
\@writefile{lof}{\contentsline {figure}{\numberline {21}{\ignorespaces Ratios of the signal+systematic and signal+cross contributions to the signal contribution for the full sky EE spectrum for the pointing systematic. }}{16}{}}
\newlabel{fig_eeratio_pointing}{{21}{16}{}{}{}}
\@writefile{lof}{\contentsline {figure}{\numberline {22}{\ignorespaces Fractional contribution of the effect of the pointing systematic on the full sky EE spectrum to the pseudo $C^{BB}_\ell $ spectrum. }}{16}{}}
\newlabel{fig_pointingsys_pseudocl}{{22}{16}{}{}{}}
\citation{Wallisetal2016}
\newlabel{eq_pointing_coupling}{{B11}{17}{}{}{}}
\@writefile{toc}{\contentsline {subsection}{\numberline {1}Product of coupling kernels}{17}{}}
\@writefile{toc}{\contentsline {subsubsection}{\numberline {a}Gain}{17}{}}
\@writefile{toc}{\contentsline {subsubsection}{\numberline {b}Pointing $\Delta P^p$}{18}{}}
\newlabel{eq_tripleyintegral}{{B19}{18}{}{}{}}
\newlabel{eq_wignersum}{{B20}{18}{}{}{}}
\bibdata{scanstrat}
\bibstyle{apsrev}
\@writefile{toc}{\contentsline {subsection}{\numberline {2}Partial sky}{19}{}}
\newlabel{LastPage}{{}{19}}
